{
	"Process": [
		{
			"Topic": "topic_message_delete", 
			"Group": "console-consumer", 
			"ResetType": "to-offset", 
			"OffsetValue": "3"        
		},
		{
			"Topic": "topic_message_delete",
			"Group": "console-consumer",
			"ResetType": "to-datetime", 
			"OffsetValue": "2022-03-30T01:01:01.001" 
		}
	]
}  
